<?xml version="1.0" encoding="UTF-8" standalone="no"?>
<!-- Created with Inkscape (http://www.inkscape.org/) -->

<svg
   version="1.1"
   id="svg1"
   width="654.51007"
   height="170.03"
   viewBox="0 0 654.5101 170.03"
   xmlns="http://www.w3.org/2000/svg"
   xmlns:svg="http://www.w3.org/2000/svg">
  <defs
     id="defs1">
    <clipPath
       clipPathUnits="userSpaceOnUse"
       id="clipPath12">
      <path
         d="M -156.17999,-302.57999 H 12.78 V 80.620003 h -168.95999 z"
         transform="translate(4.2333333e-5)"
         clip-rule="evenodd"
         id="path12" />
    </clipPath>
    <clipPath
       clipPathUnits="userSpaceOnUse"
       id="clipPath14">
      <path
         d="M -100.93,-137.14 H 86.589996 v 383.2 H -100.93 Z"
         transform="translate(4.8333333e-5)"
         clip-rule="evenodd"
         id="path14" />
    </clipPath>
    <clipPath
       clipPathUnits="userSpaceOnUse"
       id="clipPath16">
      <path
         d="M -100.93,-137.14 H 86.589996 v 383.2 H -100.93 Z"
         transform="translate(2.4333333e-5)"
         clip-rule="evenodd"
         id="path16" />
    </clipPath>
    <clipPath
       clipPathUnits="userSpaceOnUse"
       id="clipPath18">
      <path
         d="M -93.120003,-137.14 H 92.800003 v 383.2 H -93.120003 Z"
         transform="translate(-1.7666667e-5)"
         clip-rule="evenodd"
         id="path18" />
    </clipPath>
  </defs>
  <g
     id="g9"
     transform="translate(-1377.46,-329.29999)">
    <path
       id="path11"
       d="M 0,0 C -10.78,0 -17.969999,-7.52 -17.969999,-23.540001 V -112.46 c 0,-34.32999 -20.260001,-52.98 -57.17,-52.98 -32.660001,0 -52.580001,12.76001 -62.710011,39.9 l 4.25,3.27 c 9.80001,-27.46 28.74001,-38.58001 58.460011,-38.58001 33.649997,0 51.939998,17.98002 51.939998,48.39001 v 20.269998 l -57.819996,10.779998 C -123.48,-73.559998 -141.11999,-59.830002 -141.11999,-34 c 0,24.19 18.94999,38.59 50.959986,38.59 27.110005,0 57.810006,-10.8 66.960003,-34.67 v 4.58 C -23.200001,0 -9.8,4.59 0.33,4.59 5.55,4.59 9.15,3.61 12.09,1.64 l 0.33,-4.58 C 9.47,-0.65 4.9,0 0,0 Z M -88.529999,0 C -118.25,0 -135.89,-12.75 -135.89,-34 c 0,-21.91 15.68,-35.639999 58.470002,-43.480003 l 54.219997,-10.14 v 39.560002 C -23.200001,-14.06 -63.049999,0 -88.529999,0 Z"
       style="fill:#ffffff;fill-opacity:1;fill-rule:nonzero;stroke:none"
       transform="translate(1518.58,494.73999)"
       clip-path="url(#clipPath12)" />
    <path
       id="path13"
       d="M 0,0 C -34.330002,0 -60.48,19.950001 -68,46.740002 V 3.28 h -5.230003 V 166.64 H -68 V 68.300003 C -68,34.32 -39.23,4.59 -0.98,4.59 c 34.649998,0 56.55,20.26 56.55,55.220001 V 166.64 h 5.229999 V 59.150002 C 60.799999,21.58 37.59,0 0,0 Z"
       style="fill:#ffffff;fill-opacity:1;fill-rule:nonzero;stroke:none"
       transform="translate(1628.93,329.29999)"
       clip-path="url(#clipPath14)" />
    <path
       id="path15"
       d="M 0,0 C -34.330002,0 -60.48,19.950001 -68,46.740002 V 3.28 h -5.230003 V 166.64 H -68 V 68.300003 C -68,34.32 -39.23,4.59 -0.98,4.59 c 34.649998,0 56.55,20.26 56.55,55.220001 V 166.64 h 5.229999 V 59.150002 C 60.799999,21.58 37.59,0 0,0 Z"
       style="fill:#ffffff;fill-opacity:1;fill-rule:nonzero;stroke:none"
       transform="translate(1794.53,329.29999)"
       clip-path="url(#clipPath16)" />
    <path
       id="path17"
       d="M 0,0 C -47.380001,0 -76.459999,32.049999 -76.459999,85.019997 -76.459999,137.98 -47.380001,170.03 0,170.03 47.380001,170.03 76.129997,137.98 76.129997,85.019997 76.129997,32.049999 47.380001,0 0,0 Z m 0,4.59 c 44.110001,0 70.900002,30.400002 70.900002,80.429997 C 70.900002,135.03999 44.110001,165.44 0,165.44 -44.110001,165.44 -71.230003,135.03999 -71.230003,85.019997 -71.230003,34.990002 -44.110001,4.59 0,4.59 Z"
       style="fill:#ffffff;fill-opacity:1;fill-rule:nonzero;stroke:none"
       transform="translate(1955.8401,329.29999)"
       clip-path="url(#clipPath18)" />
  </g>
</svg>
